…
<img src="man/figures/README-tuning-3.png" width="100%" /><img src="man/figures/README-tuning-4.png" width="100%" />

``` r

ribo.tune
#> $CSMs
#> # A tibble: 77,657 × 78
#>    `m/z`     z Match.Int Base.Int Perc.Bond.Cleavage.1 Perc.Bond.Cleavage.2
#>    <dbl> <dbl>     <dbl>    <dbl>                <dbl>                <dbl>
#>  1 1123.     4      33.6    18622                 30.4                 35.3
#>  2 1479.     4      72.1    28673                 65.2                 45.5
#>  3 1479.     4      72.1    11208                 60.9                 42.4
#>  4 1184.     5      61.2     5892                 34.8                 27.3
#>  5 1479.     4      69.3    14587                 56.5                 45.5
#>  6  849.     4      66.7    17697                 76.5                 55.6
#>  7  849.     4      45.1    24733                 52.9                 55.6
#>  8 1059.     5      16.9   183351                 43.8                 14.8
#>  9 1059.     5      17.4    64635                 37.5                 11.1
#> 10 1059.     5      17.5    99308                 50                   11.1
#> # ℹ 77,647 more rows
#> # ℹ 72 more variables: MSMS.Ions.1 <chr>, MSMS.Ions.2 <chr>, MSMS.MZs.1 <chr>,
#> #   MSMS.MZs.2 <chr>, MSMS.Intensities.1 <chr>, MSMS.Intensities.2 <chr>,
#> #   MSMS.Errors.1 <chr>, MSMS.Errors.2 <chr>, ppm <dbl>, DB.Peptide.1 <chr>,
#> #   Peptide.1 <chr>, DB.Peptide.2 <chr>, Peptide.2 <chr>,
#> #   Elemental.Composition <chr>, Fraction <chr>, RT <dbl>, Spectrum <dbl>,
#> #   MSMS.Info <dbl>, Num.Unmat <dbl>, Num.Pks <dbl>, Score <dbl>, …
#> 
#> $URPs
#> # A tibble: 56,997 × 78
#>    `m/z`     z Match.Int Base.Int Perc.Bond.Cleavage.1 Perc.Bond.Cleavage.2
#>    <dbl> <dbl>     <dbl>    <dbl>                <dbl>                <dbl>
#>  1  701.     3      16       2620                 12.5                 12.5
#>  2  645.     3      15.9   146918                 44.4                 40  
#>  3  796.     4      28      37495                 28.6                 14.3
#>  4  545.     3      17.1    27454                100                   25  
#>  5  861.     3      11      71313                 50                   28.6
#>  6 1028.     3      25.7    70951                 62.5                 28.6
#>  7 1100.     3      43.6    98351                 57.1                 25  
#>  8 1076.     5      15      24563                 11.8                 28.6
#>  9  888.     3      39.3    28547                100                   42.9
#> 10  732.     3      42.8    46226                100                   33.3
#> # ℹ 56,987 more rows
#> # ℹ 72 more variables: MSMS.Ions.1 <chr>, MSMS.Ions.2 <chr>, MSMS.MZs.1 <chr>,
#> #   MSMS.MZs.2 <chr>, MSMS.Intensities.1 <chr>, MSMS.Intensities.2 <chr>,
#> #   MSMS.Errors.1 <chr>, MSMS.Errors.2 <chr>, ppm <dbl>, DB.Peptide.1 <chr>,
#> #   Peptide.1 <chr>, DB.Peptide.2 <chr>, Peptide.2 <chr>,
#> #   Elemental.Composition <chr>, Fraction <chr>, RT <dbl>, Spectrum <dbl>,
#> #   MSMS.Info <dbl>, Num.Unmat <dbl>, Num.Pks <dbl>, Score <dbl>, …
…
